…
      # La última cantidad a pegar será el número de minutos
      # Esta cantidad resultará de lo que arroje el ifelse
      # Si el número es menor a 10, se le "pega" un 0
      # En caso contrario, permanece la misma cantidad
              ifelse(min<10,paste0("0",min),min)))
      # El segmento de código que crea "horas_min" es igual a:
      # horas_min=paste0(horas,":",ifelse(min<10,paste0("0",min),min)))
      # Pero se explicó por separado para propósitos ilustrativos

vuelos[,c("air_time", "horas", "min", "horas_min")] 
```
El resultado debe ser el siguiente:
```{r eval=FALSE}
# A tibble: 336,776 x 4
   air_time horas   min horas_min
      <dbl> <dbl> <dbl> <chr>    
 1      227     3    47 3:47     
 2      227     3    47 3:47     
 3      160     2    40 2:40     
 4      183     3     3 3:03     
 5      116     1    56 1:56     
 6      150     2    30 2:30     
 7      158     2    38 2:38     
 8       53     0    53 0:53     
 9      140     2    20 2:20     
10      138     2    18 2:18     
# ... with 336,766 more rows
```
…
